Load covid forecasts from local hub repo or Zoltar. Return the most recent forecast from each model within forecast_date_window_size days of the last_forecast_date — load_latest_forecasts • covidHubUt
…
load_latest_forecasts(
  models = "Columbia_UNC-SurvCon",
  last_forecast_date = "2021-01-03",
  source = "zoltar",
  as_of = "2021-01-04",
  verbose = FALSE,
  location = "US"
)
#> get_token(): POST: https://zoltardata.com/api-token-auth/
#> get_resource(): GET: https://zoltardata.com/api/projects/
#> get_resource(): GET: https://zoltardata.com/api/project/44/models/
#> get_resource(): GET: https://zoltardata.com/api/project/44/timezeros/
#> # A tibble: 448 × 16
#>    model         forecast_date location horizon temporal_resolu… target_variable
#>    <chr>         <date>        <chr>    <chr>   <chr>            <chr>          
#>  1 Columbia_UNC… 2021-01-03    US       1       wk               cum death      
#>  2 Columbia_UNC… 2021-01-03    US       1       wk               cum death      
#>  3 Columbia_UNC… 2021-01-03    US       1       wk               cum death      
#>  4 Columbia_UNC… 2021-01-03    US       1       wk               cum death      
#>  5 Columbia_UNC… 2021-01-03    US       1       wk               cum death      
#>  6 Columbia_UNC… 2021-01-03    US       1       wk               cum death      
#>  7 Columbia_UNC… 2021-01-03    US       1       wk               cum death      
#>  8 Columbia_UNC… 2021-01-03    US       1       wk               cum death      
#>  9 Columbia_UNC… 2021-01-03    US       1       wk               cum death      
#> 10 Columbia_UNC… 2021-01-03    US       1       wk               cum death      
#> # … with 438 more rows, and 10 more variables: target_end_date <date>,
#> #   type <chr>, quantile <dbl>, value <dbl>, location_name <chr>,
#> #   population <dbl>, geo_type <chr>, geo_value <chr>, abbreviation <chr>,
#> #   full_location_name <chr>
…
