Load all available forecasts submitted around forecast dates from Zoltar, local Zoltar module or local hub repo. — load_forecasts • covidHubUtils
…
#> get_token(): POST: https://zoltardata.com/api-token-auth/
#> get_resource(): GET: https://zoltardata.com/api/projects/
#> get_resource(): GET: https://zoltardata.com/api/project/44/models/
#> get_resource(): GET: https://zoltardata.com/api/project/44/timezeros/
#> # A tibble: 32 × 16
#>    model             forecast_date location horizon temporal_resolu… target_variable
#>    <chr>             <date>        <chr>    <chr>   <chr>            <chr>          
#>  1 COVIDhub-ensemble 2021-07-26    US       1       wk               inc case       
#>  2 COVIDhub-ensemble 2021-07-26    US       1       wk               inc case       
#>  3 COVIDhub-ensemble 2021-07-26    US       1       wk               inc case       
#>  4 COVIDhub-ensemble 2021-07-26    US       1       wk               inc case       
#>  5 COVIDhub-ensemble 2021-07-26    US       1       wk               inc case       
#>  6 COVIDhub-ensemble 2021-07-26    US       1       wk               inc case       
#>  7 COVIDhub-ensemble 2021-07-26    US       1       wk               inc case       
#>  8 COVIDhub-ensemble 2021-07-26    US       1       wk               inc case       
#>  9 COVIDhub-ensemble 2021-07-26    US       2       wk               inc case       
#> 10 COVIDhub-ensemble 2021-07-26    US       2       wk               inc case       
#> # … with 22 more rows, and 10 more variables: target_end_date <date>,
#> #   type <chr>, quantile <dbl>, value <dbl>, location_name <chr>,
#> #   population <dbl>, geo_type <chr>, geo_value <chr>, abbreviation <chr>,
#> #   full_location_name <chr>
…
#> get_token(): POST: https://zoltardata.com/api-token-auth/
#> get_resource(): GET: https://zoltardata.com/api/projects/
#> get_resource(): GET: https://zoltardata.com/api/project/238/models/
#> get_resource(): GET: https://zoltardata.com/api/project/238/timezeros/
#> # A tibble: 192 × 12
#>    model   forecast_date location horizon temporal_resolution target_variable
#>    <chr>   <date>        <chr>    <chr>   <chr>               <chr>          
#>  1 ILM-EKF 2021-03-08    GB       1       wk                  inc death      
#>  2 ILM-EKF 2021-03-08    GB       1       wk                  inc death      
#>  3 ILM-EKF 2021-03-08    GB       1       wk                  inc death      
#>  4 ILM-EKF 2021-03-08    GB       1       wk                  inc death      
#>  5 ILM-EKF 2021-03-08    GB       1       wk                  inc death      
#>  6 ILM-EKF 2021-03-08    GB       1       wk                  inc death      
#>  7 ILM-EKF 2021-03-08    GB       1       wk                  inc death      
#>  8 ILM-EKF 2021-03-08    GB       1       wk                  inc death      
#>  9 ILM-EKF 2021-03-08    GB       1       wk                  inc death      
#> 10 ILM-EKF 2021-03-08    GB       1       wk                  inc death      
#> # … with 182 more rows, and 6 more variables: target_end_date <date>,
#> #   type <chr>, quantile <dbl>, value <dbl>, location_name <chr>,
#> #   population <int>
…
