Load truth data under multiple target variables from multiple truth sources using files in reichlab/covid19-forecast-hub. — load_truth • covidHubUtils
…
#> cols(
#>   date = col_date(format = ""),
#>   location = col_character(),
#>   location_name = col_character(),
#>   value = col_double()
#> )
#> 
#> ── Column specification ────────────────────────────────────────────────────────
#> cols(
#>   date = col_date(format = ""),
#>   location = col_character(),
#>   location_name = col_character(),
#>   value = col_double()
#> )
#> # A tibble: 512,564 x 11
#>    model target_variable target_end_date location value location_name population
#>    <chr> <chr>           <date>          <chr>    <dbl> <chr>              <dbl>
#>  1 Obse… inc hosp        2020-07-21      19          33 Iowa             3155070
#>  2 Obse… inc hosp        2020-07-21      72           0 Puerto Rico      3754939
#>  3 Obse… inc hosp        2020-07-19      01         136 Alabama          4903185
#>  4 Obse… inc hosp        2020-07-17      19          20 Iowa             3155070
#>  5 Obse… inc hosp        2020-07-17      53          26 Washington       7614893
#>  6 Obse… inc hosp        2020-07-16      41          11 Oregon           4217737
#>  7 Obse… inc hosp        2020-07-15      15           2 Hawaii           1415872
#>  8 Obse… inc hosp        2021-06-13      78           0 Virgin Islan…     107268
#>  9 Obse… inc hosp        2020-07-25      09           8 Connecticut      3565287
#> 10 Obse… inc hosp        2020-08-23      28          82 Mississippi      2976149
#> # … with 512,554 more rows, and 4 more variables: geo_type <chr>,
#> #   geo_value <chr>, abbreviation <chr>, full_location_name <chr>
…
#> cols(
#>   location = col_character(),
#>   location_name = col_character(),
#>   date = col_date(format = ""),
#>   value = col_double()
#> )
#> 
#> ── Column specification ────────────────────────────────────────────────────────
#> cols(
#>   location = col_character(),
#>   location_name = col_character(),
#>   date = col_date(format = ""),
#>   value = col_double()
#> )
#> # A tibble: 4,928 x 7
#>    model target_variable target_end_date location value location_name population
#>    <chr> <chr>           <date>          <chr>    <dbl> <chr>              <int>
#>  1 Obse… inc case        2020-01-25      AT           0 Austria          8809212
#>  2 Obse… inc case        2020-02-01      AT           0 Austria          8809212
#>  3 Obse… inc case        2020-02-08      AT           0 Austria          8809212
#>  4 Obse… inc case        2020-02-15      AT           0 Austria          8809212
#>  5 Obse… inc case        2020-02-22      AT           0 Austria          8809212
#>  6 Obse… inc case        2020-02-29      AT           9 Austria          8809212
#>  7 Obse… inc case        2020-03-07      AT          70 Austria          8809212
#>  8 Obse… inc case        2020-03-14      AT         576 Austria          8809212
#>  9 Obse… inc case        2020-03-21      AT        2159 Austria          8809212
#> 10 Obse… inc case        2020-03-28      AT        5457 Austria          8809212
#> # … with 4,918 more rows
…
